LEGO sets
…
# A tibble: 4 × 3
     id name      parent_id
  <dbl> <chr>         <dbl>
1    18 Star Wars         1
2   158 Star Wars        NA
3   209 Star Wars       207
4   261 Star Wars       258

podracers<- dleft05 %>%
         dplyr::filter(grepl('odracer', name))

dleft06 %>% dplyr::filter(grepl('Star', theme))

# A tibble: 76,531 × 22
   inventory_id part_num color…¹ quant…² is_sp…³ img_u…⁴ version set_num part_…⁵
          <dbl> <chr>      <dbl>   <dbl> <lgl>   <chr>     <dbl> <chr>   <chr>  
 1           22 15573         72       1 FALSE   https:…       1 30277-1 Plate …
 2           22 2412b        179       3 FALSE   https:…       1 30277-1 Tile S…
 3           22 2654          72       4 FALSE   https:…       1 30277-1 Plate …
 4           22 3020           0       2 FALSE   https:…       1 30277-1 Plate …
 5           22 3022           0       1 FALSE   https:…       1 30277-1 Plate …
 6           22 3023          46       2 FALSE   https:…       1 30277-1 Plate …
 7           22 3023          71       2 FALSE   https:…       1 30277-1 Plate …
 8           22 3024          46       4 FALSE   https:…       1 30277-1 Plate …
 9           22 3024          46       1 TRUE    https:…       1 30277-1 Plate …
10           22 3024           0       2 FALSE   https:…       1 30277-1 Plate …
# … with 76,521 more rows, 13 more variables: part_cat_id <dbl>,
#   part_material <chr>, part_category <chr>, color_name <chr>, rgb <chr>,
#   is_trans <lgl>, set_name <chr>, year <dbl>, theme_id <dbl>,
#   num_parts <dbl>, img_url.y <chr>, theme <chr>, parent_id <dbl>, and
#   abbreviated variable names ¹​color_id, ²​quantity, ³​is_spare, ⁴​img_url.x,
#   ⁵​part_name
…
